{
  "user1": [
    {
      "date": "2020-05-21",
      "description": "Cortar pello y barba",
      "starttime": "05:04",
      "endtime": "04:22",
      "id": 1
    },
    {
      "date": "2020-05-06",
      "description": "Cortar pello y barba",
      "starttime": "23:00",
      "endtime": "00:00",
      "id": 2
    },
    {
      "date": "2020-05-31",
      "description": "Cortar pello y barba",
      "starttime": "02:00",
      "endtime": "13:00",
      "id": 3
    }
  ],
  "user2": [
    {
      "username": "kjsdbf",
      "email": "adf@lkafd.com",
      "password": "123456",
      "validaRepetirPassword": "123456",
      "id": 1
    },
    {
      "username": "kjsdbf",
      "email": "adf@lkafd.com",
      "password": "123456",
      "validaRepetirPassword": "123456",
      "id": 2
    },
    {
      "username": "lj",
      "email": "lkjn@ljsnd.com",
      "password": "123",
      "validaRepetirPassword": "123",
      "id": 3
    },
    {
      "username": "lj",
      "email": "lkjn@ljsnd.com",
      "password": "123",
      "validaRepetirPassword": "123",
      "id": 4
    },
    {
      "username": "lj",
      "email": "lkjn@ljsnd.com",
      "password": "123",
      "validaRepetirPassword": "123",
      "id": 5
    },
    {
      "username": "lj",
      "email": "lkjn@ljsnd.com",
      "password": "123",
      "validaRepetirPassword": "123",
      "id": 6
    },
    {
      "username": "lj",
      "email": "lkjn@ljsnd.com",
      "password": "123",
      "validaRepetirPassword": "123",
      "id": 7
    },
    {
      "username": "lj",
      "email": "lkjn@ljsnd.com",
      "password": "123",
      "validaRepetirPassword": "123",
      "id": 8
    },
    {
      "username": "lj",
      "email": "lkjn@ljsnd.com",
      "password": "123",
      "validaRepetirPassword": "123",
      "id": 9
    },
    {
      "username": "lj",
      "email": "lkjn@ljsnd.com",
      "password": "123",
      "validaRepetirPassword": "123",
      "id": 10
    },
    {
      "username": "lj",
      "email": "lkjn@ljsnd.com",
      "password": "123",
      "validaRepetirPassword": "123",
      "id": 11
    },
    {
      "username": "lj",
      "email": "lkjn@ljsnd.com",
      "password": "123",
      "validaRepetirPassword": "123",
      "id": 12
    },
    {
      "username": "lj",
      "email": "lkjn@ljsnd.com",
      "password": "123",
      "validaRepetirPassword": "123",
      "id": 13
    },
    {
      "username": "lj",
      "email": "lkjn@ljsnd.com",
      "password": "123",
      "validaRepetirPassword": "123",
      "id": 14
    },
    {
      "username": "fa",
      "email": "asf@sdf",
      "password": "asfd",
      "validaRepetirPassword": "asf",
      "id": 15
    },
    {
      "username": "asd",
      "email": "asd@aef",
      "password": "asf",
      "validaRepetirPassword": "asd",
      "id": 16
    },
    {
      "username": "kjbh",
      "email": "jhb@hgj",
      "password": "123",
      "validaRepetirPassword": "123",
      "id": 17
    },
    {
      "username": "hola",
      "email": "bola@hola",
      "password": "xfg",
      "id": 18
    },
    {
      "id": 19
    },
    {
      "id": 20
    },
    {
      "username": "ty",
      "email": "fsj",
      "password": "sfghj",
      "id": 21
    },
    {
      "id": 22
    },
    {
      "id": 23
    },
    {
      "id": 24
    },
    {
      "id": 25
    },
    {
      "username": "kjh",
      "id": 26
    }
  ]
}